INDEX VERSION 1.4+C:\Formación Manpower\cursojava2021\Proyectos Spring\.metadata\.plugins\org.eclipse.wst.jsdt.core\indexes
4048507938.index
4292602866.index
1610689832.index
3160561097.index
3632186619.index
446430231.index
